[
  {
    "id": 0,
    "name": "Anna Ivanovna",
    "portf": {
      "text": "Manicure",
      "images": []
    }
  },
  {
    "id": 1,
    "name": "Ekaterina Fedorovna",
    "portf": {
      "text": "Pedicure",
      "images": []
    }
  },
  {
    "id": 2,
    "name": "Veronika Stanislavovna",
    "portf": {
      "text": "Brows",
      "images": []
    }
  },
  {
    "id": 3,
    "name": "Julia Leonidovna",
    "portf": {
      "text": "Eyelashes",
      "images": []
    }
  }
]
